{
    "name": "default",
    "description": "Default Board",

    "config": {
        "double-rolls-to-jail": 3,
        "player-timeout": 180,
        "amounts": {
            "start": 1500,
            "pass-go": 200,
            "income-tax": 200,
            "super-tax": 100,
            "get-out-jail": 50
        }
    },

    "deeds": {
        "utilities": [
            {
                "name": "Electric Company",
                "price": 150,
                "image": "/boards/default/images/deeds/utilities1.png",
                "rent": {
                    "dice": [4, 10]
                }
            },
            {
                "name": "Water Works",
                "price": 150,
                "image": "/boards/default/images/deeds/utilities2.png",
                "rent": {
                    "dice": [4, 10]
                }
            }
        ],
        "stations": [
            {
                "name": "Kings Cross Station",
                "price": 200,
                "image": "/boards/default/images/deeds/station1.png",
                "rent": {
                    "set": [ 25, 50, 100, 200 ]
                }
            },
            {
                "name": "Marylebone Station",
                "price": 200,
                "image": "/boards/default/images/deeds/station2.png",
                "rent": {
                    "set": [ 25, 50, 100, 200 ]
                }
            },
            {
                "name": "Fenchurch st. Station",
                "price": 200,
                "image": "/boards/default/images/deeds/station3.png",
                "rent": {
                    "set": [ 25, 50, 100, 200 ]
                }
            },
            {
                "name": "Liverpool st. Station",
                "price": 200,
                "image": "/boards/default/images/deeds/station4.png",
                "rent": {
                    "set": [ 25, 50, 100, 200 ]
                }
            }
        ],
        "brown": [
            {
                "name": "Old Kent Road",
                "price": 60,
                "image": "/boards/default/images/deeds/brown1.png",
                "house-price": 50,
                "rent": {
                    "property": [ 2, 10, 30, 90, 160, 250 ],
                    "set-double": true
                }
            },
            {
                "name": "Whitechapel Road",
                "price": 60,
                "image": "/boards/default/images/deeds/brown2.png",
                "house-price": 50,
                "rent": {
                    "property": [ 4, 20, 60, 180, 320, 450 ],
                    "set-double": true
                }
            }
        ],
        "light-blue": [
            {
                "name": "The Angel Islington",
                "price": 100,
                "image": "/boards/default/images/deeds/lightblue1.png",
                "house-price": 50,
                "rent": {
                    "property": [ 6, 30, 90, 270, 400, 550 ],
                    "set-double": true
                }
            },
            {
                "name": "Euston Road",
                "price": 100,
                "image": "/boards/default/images/deeds/lightblue2.png",
                "house-price": 50,
                "rent": {
                    "property": [ 6, 30, 90, 270, 400, 550 ],
                    "set-double": true
                }
            },
            {
                "name": "Pentonvile Road",
                "price": 120,
                "image": "/boards/default/images/deeds/lightblue3.png",
                "house-price": 50,
                "rent": {
                    "property": [ 8, 40, 100, 300, 450, 600 ],
                    "set-double": true
                }
            }
        ],
        "pink": [
            {
                "name": "Pall Mall",
                "price": 140,
                "image": "/boards/default/images/deeds/pink1.png",
                "house-price": 100,
                "rent": {
                    "property": [ 10, 50, 150, 450, 625, 750 ],
                    "set-double": true
                }
            },
            {
                "name": "Whitehall",
                "price": 140,
                "image": "/boards/default/images/deeds/pink2.png",
                "house-price": 100,
                "rent": {
                    "property": [ 10, 50, 150, 450, 625, 750 ],
                    "set-double": true
                }
            },
            {
                "name": "Northumberland Avenue",
                "price": 160,
                "image": "/boards/default/images/deeds/pink3.png",
                "house-price": 100,
                "rent": {
                    "property": [ 12, 60, 180, 500, 700, 900 ],
                    "set-double": true
                }
            }
        ],
        "orange": [
            {
                "name": "Bow Street",
                "price": 180,
                "image": "/boards/default/images/deeds/orange1.png",
                "house-price": 100,
                "rent": {
                    "property": [ 14, 70, 200, 550, 750, 950 ],
                    "set-double": true
                }
            },
            {
                "name": "Marlborough Street",
                "price": 180,
                "image": "/boards/default/images/deeds/orange2.png",
                "house-price": 100,
                "rent": {
                    "property": [ 14, 70, 200, 550, 750, 950 ],
                    "set-double": true
                }
            },
            {
                "name": "Vine Street",
                "price": 200,
                "image": "/boards/default/images/deeds/orange3.png",
                "house-price": 100,
                "rent": {
                    "property": [ 16, 80, 220, 600, 800, 1000 ],
                    "set-double": true
                }
            }
        ],
        "red": [
            {
                "name": "Strand",
                "price": 220,
                "image": "/boards/default/images/deeds/red1.png",
                "house-price": 150,
                "rent": {
                    "property": [ 18, 90, 250, 700, 875, 1050 ],
                    "set-double": true
                }
            },
            {
                "name": "Fleet Street",
                "price": 220,
                "image": "/boards/default/images/deeds/red2.png",
                "house-price": 150,
                "rent": {
                    "property": [ 18, 90, 250, 700, 875, 1050 ],
                    "set-double": true
                }
            },
            {
                "name": "Trafalgar Square",
                "price": 240,
                "image": "/boards/default/images/deeds/red3.png",
                "house-price": 150,
                "rent": {
                    "property": [ 20, 100, 300, 750, 925, 1100 ],
                    "set-double": true
                }
            }
        ],
        "yellow": [
            {
                "name": "Leicester Square",
                "price": 260,
                "image": "/boards/default/images/deeds/yellow1.png",
                "house-price": 150,
                "rent": {
                    "property": [ 22, 110, 330, 800, 975, 1150 ],
                    "set-double": true
                }
            },
            {
                "name": "Coventry Street",
                "price": 260,
                "image": "/boards/default/images/deeds/yellow2.png",
                "house-price": 150,
                "rent": {
                    "property": [ 22, 110, 330, 800, 975, 1150 ],
                    "set-double": true
                }
            },
            {
                "name": "Piccadilly",
                "price": 280,
                "image": "/boards/default/images/deeds/yellow3.png",
                "house-price": 150,
                "rent": {
                    "property": [ 22, 120, 360, 850, 1025, 1200 ],
                    "set-double": true
                }
            }
        ],
        "green": [
            {
                "name": "Regent Street",
                "price": 300,
                "image": "/boards/default/images/deeds/green1.png",
                "house-price": 200,
                "rent": {
                    "property": [ 26, 130, 390, 900, 1100, 1275 ],
                    "set-double": true
                }
            },
            {
                "name": "Oxford Street",
                "price": 300,
                "image": "/boards/default/images/deeds/green2.png",
                "house-price": 200,
                "rent": {
                    "property": [ 26, 130, 390, 900, 1100, 1275 ],
                    "set-double": true
                }
            },
            {
                "name": "Bond Street",
                "price": 320,
                "image": "/boards/default/images/deeds/green3.png",
                "house-price": 200,
                "rent": {
                    "property": [ 28, 150, 450, 1000, 1200, 1400 ],
                    "set-double": true
                }
            }
        ],
        "dark-blue": [
            {
                "name": "Park Lane",
                "price": 350,
                "image": "/boards/default/images/deeds/darkblue1.png",
                "house-price": 200,
                "rent": {
                    "property": [ 35, 175, 500, 1100, 1300, 1500 ],
                    "set-double": true
                }
            },
            {
                "name": "Mayfair",
                "price": 400,
                "image": "/boards/default/images/deeds/darkblue2.png",
                "house-price": 200,
                "rent": {
                    "property": [ 50, 200, 600, 1400, 1700, 2000 ],
                    "set-double": true
                }
            }
        ]
    },
    "cards": {
        "chance": [
            {
                "text": "Advance to Mayfair",
                "action": "go-to-position",
                "params": {
                    "position": 40
                }
            },
            {
                "text": "Advance to Go",
                "action": "go-to-position",
                "params": {
                    "position": 1
                }
            },
            {
                "text": "You are Assessed for Street Repairs M40 per House M115 per Hotel",
                "action": "building-fees",
                "params": {
                    "amount-hotel": 115,
                    "amount-house": 40
                }
            },
            {
                "text": "Go to Jail. Move Directly to Jail. Do not pass 'Go' Do not Collect M200.",
                "action": "go-to-jail"
            },
            {
                "text": "Bank pays you Dividend of M50.",
                "action": "collect-from-bank",
                "params": {
                    "amount": 50
                }
            },
            {
                "text": "Pay School Fees of M150",
                "action": "pay-to-bank",
                "params": {
                    "amount": 150
                }
            },
            {
                "text": "Make General Repairs on all of Your Houses. For each House pay M25. For each Hotel pay M100",
                "action": "building-fees",
                "params": {
                    "amount-hotel": 100,
                    "amount-house": 25
                }
            },
            {
                "text": "Speeding Fine M15",
                "action": "pay-to-bank",
                "params": {
                    "amount": 15
                }
            },
            {
                "text": "You have won a Crossword Competition Collect M100",
                "action": "collect-from-bank",
                "params": {
                    "amount": 100
                }
            },
            {
                "text": "Your Building and Loan Matures Collect M150",
                "action": "collect-from-bank",
                "params": {
                    "amount": 150
                }
            },
            {
                "text": "Get out of jail free",
                "action": "get-out-jail"
            },
            {
                "text": "Avance to Trafalgar Square If you Pass 'Go' Collect M200",
                "action": "go-to-position",
                "params": {
                    "position": 25
                }
            },
            {
                "text": "Take a Trip to Marylebone Station and if you Pass 'Go' Collect M200",
                "action": "go-to-position",
                "params": {
                    "position": 16
                }
            },
            {
                "text": "Advance to Pall Mall If you Pass 'Go' Collect M200",
                "action": "go-to-position",
                "params": {
                    "position": 12
                }
            },
            {
                "text": "'Drunk in Charge' Fine M20",
                "action": "pay-to-bank",
                "params": {
                    "amount": 20
                }
            }
        ],
        "community-chest": [
            {
                "text": "Income Tax refund Collect M20",
                "action": "collect-from-bank",
                "params": {
                    "amount": 20
                }
            },
            {
                "text": "From Sale of Stock you get M50",
                "action": "collect-from-bank",
                "params": {
                    "amount": 50
                }
            },
            {
                "text": "It is Your Birthday, Collect M10 from each Player",
                "action": "collect-from-players",
                "params": {
                    "amount": 10
                }
            },
            {
                "text": "Receive Interest on 7% Preference Shares M25",
                "action": "collect-from-bank",
                "params": {
                    "amount": 25
                }
            },
            {
                "text": "Get out of jail free",
                "action": "get-out-jail"
            },
            {
                "text": "Advance to Go",
                "action": "go-to-position",
                "params": {
                    "position": 1
                }
            },
            {
                "text": "Pay Hospital M100",
                "action": "pay-to-bank",
                "params": {
                    "amount": 100
                }
            },
            {
                "text": "You have Won Second Prize in a Beauty Contest Collect M10",
                "action": "collect-from-bank",
                "params": {
                    "amount": 10
                }
            },
            {
                "text": "Bank Error in your Favour Collect M200",
                "action": "collect-from-bank",
                "params": {
                    "amount": 200
                }
            },
            {
                "text": "You Inherit M100",
                "action": "collect-from-bank",
                "params": {
                    "amount": 100
                }
            },
            {
                "text": "Go to Jail. Move Directly to Jail. Do not Pass 'Go'. Do not Collect M200",
                "action": "go-to-jail"
            },
            {
                "text": "Pay your Insurance Premium M50",
                "action": "pay-to-bank",
                "params": {
                    "amount": 50
                }
            },
            {
                "text": "Doctor's Fee Pay M50",
                "action": "pay-to-bank",
                "params": {
                    "amount": 50
                }
            },
            {
                "text": "Go Back to Old Kent Road",
                "action": "go-to-position",
                "params": {
                    "position": 2,
                    "skip-pass-go": true
                }
            },
            {
                "text": "Annuity Matures Collect M100",
                "action": "collect-from-bank",
                "params": {
                    "amount": 100
                }
            }
        ]
    },
    "tokens": [
        {
            "name": "Red",
            "image": "/boards/default/images/tokens/red.png"
        },
        {
            "name": "Orange",
            "image": "/boards/default/images/tokens/orange.png"
        },
        {
            "name": "Blue",
            "image": "/boards/default/images/tokens/blue.png"
        },
        {
            "name": "Green",
            "image": "/boards/default/images/tokens/green.png"
        },
        {
            "name": "Yellow",
            "image": "/boards/default/images/tokens/yellow.png"
        }
    ]
}
